<33,27,24>
<53,26,24>
<56,75,34>
<33,84,42>

#More parcels
<24,103,40>
<61,113,25>
<27,148,39>
<62,145,37>

#A set of parcels
<100,197,24>
<127,229,24>
<177,234,24>
<234,229,24>
<233,198,44>